luxembourg_project_HW
…
New names:
• `*` -> `*...3`
• `*` -> `*...4`

raw_data

# A tibble: 1,343 × 9
   commune    nombre_doffres prix_moyen_annonce_e…¹ prix_moyen_annonce_a…² year 
   <chr>               <dbl> <chr>                  <chr>                  <chr>
 1 Bascharage            192 593698.31000000006     3603.57                2010 
 2 Beaufort              266 461160.29              2902.76                2010 
 3 Bech                   65 621760.22              3280.51                2010 
 4 Beckerich             176 444498.68              2867.88                2010 
 5 Berdorf               111 504040.85              3055.99                2010 
 6 Bertrange             264 795338.87              4266.46                2010 
 7 Bettembou…            304 555628.29              3343.22                2010 
 8 Bettendorf             94 495074.38              3235.26                2010 
 9 Betzdorf              119 625914.47              3343.05                2010 
10 Bissen                 70 516465.57              3321.65                2010 
# ℹ 1,333 more rows
# ℹ abbreviated names: ¹​prix_moyen_annonce_en_courant,
#   ²​prix_moyen_annonce_au_m2_en_courant
# ℹ 4 more variables: bech <chr>, x12 <dbl>, x3 <chr>, x4 <chr>
…
    average_price_nominal_euros = prix_moyen_annonce_en_courant,

    average_price_m2_nominal_euros = prix_moyen_annonce_au_m2_en_courant,

    average_price_m2_nominal_euros = prix_moyen_annonce_au_m2_en_courant

  ) |>

  mutate(locality = str_trim(locality)) |>

  select(year, locality, n_offers, starts_with("average"))

raw_data

# A tibble: 1,343 × 5
   year  locality    n_offers average_price_nominal_euros average_price_m2_nom…¹
   <chr> <chr>          <dbl> <chr>                       <chr>                 
 1 2010  Bascharage       192 593698.31000000006          3603.57               
 2 2010  Beaufort         266 461160.29                   2902.76               
 3 2010  Bech              65 621760.22                   3280.51               
 4 2010  Beckerich        176 444498.68                   2867.88               
 5 2010  Berdorf          111 504040.85                   3055.99               
 6 2010  Bertrange        264 795338.87                   4266.46               
 7 2010  Bettembourg      304 555628.29                   3343.22               
 8 2010  Bettendorf        94 495074.38                   3235.26               
 9 2010  Betzdorf         119 625914.47                   3343.05               
10 2010  Bissen            70 516465.57                   3321.65               
# ℹ 1,333 more rows
# ℹ abbreviated name: ¹​average_price_m2_nominal_euros
…
Warning: There were 2 warnings in `mutate()`.
The first warning was:
ℹ In argument: `across(starts_with("average"), as.numeric)`.
Caused by warning:
! NAs introduced by coercion
ℹ Run `dplyr::last_dplyr_warnings()` to see the 1 remaining warning.

raw_data |>
  filter(is.na(average_price_nominal_euros))

# A tibble: 290 × 5
   year  locality         n_offers average_price_nomina…¹ average_price_m2_nom…²
   <chr> <chr>               <dbl>                  <dbl>                  <dbl>
 1 2010  Consthum               29                     NA                     NA
 2 2010  Esch-sur-Sûre           7                     NA                     NA
 3 2010  Heiderscheid           29                     NA                     NA
 4 2010  Hoscheid               26                     NA                     NA
 5 2010  Saeul                  14                     NA                     NA
 6 2010  <NA>                   NA                     NA                     NA
 7 2010  <NA>                   NA                     NA                     NA
 8 2010  Total d'offres      19278                     NA                     NA
 9 2010  <NA>                   NA                     NA                     NA
10 2010  Source : Minist…       NA                     NA                     NA
# ℹ 280 more rows
# ℹ abbreviated names: ¹​average_price_nominal_euros,
#   ²​average_price_m2_nominal_euros
…
# Merge the data based on locality and commune columns
result <- commune_level_data %>%
  left_join(current_communes, by = c("locality" = "commune")) 

# Rename the 'canton' column if you want
colnames(result)[colnames(result) == "canton.y"] <- "canton"

# The 'result' dataframe now has the 'canton' column

result

# A tibble: 1,171 × 11
   year  locality   n_offers average_price_nomina…¹ average_price_m2_nom…² name 
   <chr> <chr>         <dbl>                  <dbl>                  <dbl> <chr>
 1 2010  Bascharage      192                593698.                  3604. <NA> 
 2 2010  Beaufort        266                461160.                  2903. ""   
 3 2010  Bech             65                621760.                  3281. ""   
 4 2010  Beckerich       176                444499.                  2868. ""   
 5 2010  Berdorf         111                504041.                  3056. ""   
 6 2010  Bertrange       264                795339.                  4266. ""   
 7 2010  Bettembou…      304                555628.                  3343. ""   
 8 2010  Bettendorf       94                495074.                  3235. ""   
 9 2010  Betzdorf        119                625914.                  3343. ""   
10 2010  Bissen           70                516466.                  3322. ""   
# ℹ 1,161 more rows
# ℹ abbreviated names: ¹​average_price_nominal_euros,
#   ²​average_price_m2_nominal_euros
# ℹ 5 more variables: canton <chr>, population_2018 <chr>, area <chr>,
#   area_2 <chr>, population_density <chr>
…
